
Program received signal SIGSEGV: Segmentation fault - invalid memory reference.

Backtrace for this error:

Program received signal SIGSEGV: Segmentation fault - invalid memory reference.

Backtrace for this error:

Program received signal SIGSEGV: Segmentation fault - invalid memory reference.

Backtrace for this error:

Program received signal SIGSEGV: Segmentation fault - invalid memory reference.

Backtrace for this error:
#0  0x7fe7105248da
#1  0x7fe710523ae3
#2  0x7fe71017b83f
#3  0x56104f35c551
#4  0x56104f3609bd
#5  0x56104f3593ce
#6  0x7fe71016809a
#7  0x56104f359409
#8  0xffffffffffffffff
#0  0x7f268fdb28da
#1  0x7f268fdb1ae3
#2  0x7f268fa0983f
#3  0x55db00b40551
#4  0x55db00b449bd
#5  0x55db00b3d3ce
#6  0x7f268f9f609a
#7  0x55db00b3d409
#8  0xffffffffffffffff
#0  0x7f1ed7c6e8da
#0  0x7f04efc2b8da
#1  0x7f04efc2aae3
#2  0x7f04ef88283f
#3  0x55df00aa0551
#4  0x55df00aa49bd
#5  0x55df00a9d3ce
#6  0x7f04ef86f09a
#7  0x55df00a9d409
#8  0xffffffffffffffff
#1  0x7f1ed7c6dae3
#2  0x7f1ed78c583f
#3  0x55f4d87a3551
#4  0x55f4d87a79bd
#5  0x55f4d87a03ce
#6  0x7f1ed78b209a
#7  0x55f4d87a0409
#8  0xffffffffffffffff
--------------------------------------------------------------------------
Primary job  terminated normally, but 1 process returned
a non-zero exit code. Per user-direction, the job has been aborted.
--------------------------------------------------------------------------
--------------------------------------------------------------------------
mpirun noticed that process rank 2 with PID 0 on node instance-2 exited on signal 11 (Segmentation fault).
--------------------------------------------------------------------------
